<svg xmlns="http://www.w3.org/2000/svg" width="150.8" height="196.3" viewBox="0 0 150.8 196.3">
  <g fill="#FFF">
    <path d="M43.3 34.9c-.4-.8-.9-1.5-1.6-2.1s-1.6-1.1-2.6-1.4c-1-.4-2.2-.7-3.4-1.1l-.9-.2v-6.2c.7.1 1.4.2 2 .4.6.2 1.2.4 1.8.7.5.3 1 .5 1.4.7.4.2.7.4.8.6l2.2-4c-1-.7-2.2-1.3-3.5-1.8-1.3-.5-2.8-.9-4.4-1v-3.6h-2.2v3.7c-1.2.1-2.2.3-3.2.7-1 .4-1.9.9-2.6 1.6s-1.3 1.5-1.7 2.4c-.4 1-.6 2-.6 3.2 0 1 .2 1.8.5 2.5s.8 1.3 1.4 1.9c.6.5 1.4 1 2.3 1.4.9.4 2 .8 3.2 1.1.2.1.4.1.6.2.2.1.4.1.6.2V41c-.9-.1-1.7-.3-2.5-.5-.8-.3-1.5-.5-2.2-.8-.7-.3-1.2-.6-1.7-.9-.5-.3-.8-.6-1-.8l-2.2 4.3c1.3.9 2.7 1.7 4.3 2.2 1.6.6 3.2.9 4.9 1v4h2.2v-4c1.2 0 2.3-.2 3.4-.5s2-.8 2.8-1.4c.8-.6 1.4-1.4 1.9-2.3.5-.9.7-2.1.7-3.4-.1-1.2-.3-2.2-.7-3zm-10-5.3c-1.2-.3-2-.7-2.6-1.1-.6-.4-.8-1-.8-1.9 0-1.8 1.1-2.7 3.4-2.9v5.9zM34.8 41v-5.8c1.2.4 2.1.8 2.8 1.3s1 1.1 1 1.9c0 1.6-1.3 2.5-3.8 2.6zm10.1 116.2v26.1H71v-26.1H44.9zm20.1 20H51v-14h14v14zm14.4-20v26.1h26.1v-26.1H79.4zm20 20h-14v-14h14v14zm-54.5-53.3V150H71v-26.1H44.9zM65 144H51v-14h14v14zm14.4-20.1V150h26.1v-26.1H79.4zm20 20.1h-14v-14h14v14zM44.9 90.6v26.1H71V90.6H44.9zM65 110.7H51v-14h14v14zm46.5-20.1v26.1h26.1V90.6h-26.1zm20 20.1h-14v-14h14v14zM79.4 90.6v26.1h26.1V90.6H79.4zm20 20.1h-14v-14h14v14zM31.7 73.4h6v6h-6v-6z"/>
    <path d="M66.6 25.1C62.7 10.6 49.5 0 33.9 0 15.2 0 0 15.2 0 33.9s15.2 33.9 33.9 33.9c3.9 0 7.6-.7 11-1.9v13.3h92.6V38.1h-70c.2-1.4.3-2.8.3-4.2 0-.9 0-1.9-.1-2.8h77.1v159.2h-107V86.4h-6v109.9h119.1V25.1H66.6zM33.9 61.8C18.5 61.8 6 49.3 6 33.9 6 18.5 18.5 6 33.9 6c15.4 0 27.9 12.5 27.9 27.9S49.3 61.8 33.9 61.8zm97.6-17.7v29.1H50.9v-10c7.2-4.2 12.7-11 15.3-19h65.3z"/>
    <path d="M111.5 155h6v6h-6v-6z"/>
    <path d="M111.5 123.9v23.9h6V130h14v47.3h-14V168h-6v15.2h26.1v-59.3"/>
  </g>
</svg>
